{
  "project_info": {
    "project_number": "770612556187",
    "project_id": "financemagicintroducer",
    "storage_bucket": "financemagicintroducer.appspot.com"
  },
  "client": [
    {
      "client_info": {
        "mobilesdk_app_id": "1:770612556187:android:753c7a6fe7508fccd1713e",
        "android_client_info": {
          "package_name": "uk.co.financemagic.introducer"
        }
      },
      "oauth_client": [
        {
          "client_id": "770612556187-s3ot09uacg7dpjooll4b1ehtql53h1da.apps.googleusercontent.com",
          "client_type": 1,
          "android_info": {
            "package_name": "uk.co.financemagic.introducer",
            "certificate_hash": "44d29dd77854f9cf2c2644c71ccf8b07ba5e903e"
          }
        },
        {
          "client_id": "770612556187-59mvv0ojtimjf0ev7s5va7pq7as53vte.apps.googleusercontent.com",
          "client_type": 3
        }
      ],
      "api_key": [
        {
          "current_key": "AIzaSyAx-qSTk-4DA8zPcpga-gBDGytYhruLf6g"
        }
      ],
      "services": {
        "appinvite_service": {
          "other_platform_oauth_client": [
            {
              "client_id": "770612556187-59mvv0ojtimjf0ev7s5va7pq7as53vte.apps.googleusercontent.com",
              "client_type": 3
            }
          ]
        }
      }
    }
  ],
  "configuration_version": "1"
}